{
  "EDITOR_STATE": {
    "allProjectFiles": {
      "1501f8e9-bfa2-43f2-b9b4-1399fe6100ca": {
        "id": "1501f8e9-bfa2-43f2-b9b4-1399fe6100ca",
        "parent": null,
        "name": "hiru2908_merge136",
        "type": "DIRECTORY",
        "isDirectory": true,
        "children": [
          "05f95ebe-8df2-4a08-8445-6b8aa61d795b"
        ],
        "isRemovable": false,
        "filePath": "hiru2908_merge136"
      },
      "05f95ebe-8df2-4a08-8445-6b8aa61d795b": {
        "id": "05f95ebe-8df2-4a08-8445-6b8aa61d795b",
        "parent": "1501f8e9-bfa2-43f2-b9b4-1399fe6100ca",
        "name": "lambda.js",
        "type": "JS_LAMBDA",
        "isDirectory": false,
        "children": [],
        "isRemovable": true,
        "filePath": "hiru2908_merge136/lambda.js",
        "code": "exports.handler = function(event, context, callback) {\n    //hirudineeeghjlll\n    //hkjkhkh\n    callback(null, {\"message\": \"Successfully executed\"});\n}",
        "config": {
          "runtime": "nodejs8.10",
          "handler": "handler",
          "timeout": 60,
          "memory": 128,
          "layers": []
        },
        "triggers": []
      }
    },
    "deletedFiles": [],
    "rootNode": "1501f8e9-bfa2-43f2-b9b4-1399fe6100ca",
    "openFiles": [
      "05f95ebe-8df2-4a08-8445-6b8aa61d795b"
    ],
    "currentFileId": "05f95ebe-8df2-4a08-8445-6b8aa61d795b",
    "resources": {},
    "customTemplate": {
      "dialect": null,
      "definitions": null
    },
    "envVariables": [
      {
        "lambdaId": "all",
        "varKey": "SIGMA_AWS_ACC_ID",
        "varValue": null,
        "shouldPersist": false,
        "displayOnly": false,
        "editable": false
      }
    ],
    "packageJSON": {
      "dependencies": {}
    }
  },
  "PROJECT_META": {
    "projectName": "hiru2908_merge136",
    "projectDescription": "",
    "projectVersion": "1.0.0",
    "projectRegion": "us-east-1",
    "platform": "AWS",
    "platformRegions": {},
    "lastSave": 1567076479606
  },
  "VCS_STATE": {
    "provider": "BitBucket",
    "repo": {
      "name": "hiru2908_merge136",
      "url": "https://bitbucket.org/hirudineeliyanage/hiru2908_merge136"
    }
  }
}